interactions:
- request:
    body: null
    headers:
      Accept:
      - '*/*'
      Accept-Encoding:
      - gzip, deflate, br, zstd
      Authorization:
      - Bearer BQDerJ6IqdURMvxlBaFjP4vJUTUWk3Qc_F2rdhYgXBeiBEG_Ui3VV3ktFN7xSkymfGpoikHqlUik1Gk6Fh6qv2kjZxhaEz-HQT3H_55eZRDLkQNVYq5bGngUfg6iPnarHb2KNCAcLyk
      Connection:
      - keep-alive
      Content-Type:
      - application/json
      User-Agent:
      - python-requests/2.32.5
    method: GET
    uri: https://api.spotify.com/v1/search?q=playlist%3A+This+Is+Gorillaz&limit=10&offset=0&type=playlist
  response:
    body:
      string: "{\"playlists\":{\"href\":\"https://api.spotify.com/v1/search?offset=0&limit=10&query=playlist%3A%20This%20Is%20Gorillaz&type=playlist\",\"limit\":10,\"next\":\"https://api.spotify.com/v1/search?offset=10&limit=10&query=playlist%3A%20This%20Is%20Gorillaz&type=playlist\",\"offset\":0,\"previous\":null,\"total\":900,\"items\":[null,null,{\"collaborative\":false,\"description\":\"This
        is GORILLAZ radio feel good inc playlist all songs discography mix lo mejor
        de exitos as melhores musicas live todas las canciones 2\",\"external_urls\":{\"spotify\":\"https://open.spotify.com/playlist/34oEnBjW8u9K0EOUfSonQ0\"},\"href\":\"https://api.spotify.com/v1/playlists/34oEnBjW8u9K0EOUfSonQ0\",\"id\":\"34oEnBjW8u9K0EOUfSonQ0\",\"images\":[{\"height\":null,\"url\":\"https://image-cdn-ak.spotifycdn.com/image/ab67706c0000da840f8f3f9163fa249c6359b53d\",\"width\":null}],\"name\":\"GORILLAZ
        HITS\U0001F7E2 BEST OF\",\"owner\":{\"display_name\":\"\U0001F7E2 ROCK PLAYLISTS
        \U0001F7E2\",\"external_urls\":{\"spotify\":\"https://open.spotify.com/user/31yfb62456dqlvnsjrfsfnd73zay\"},\"href\":\"https://api.spotify.com/v1/users/31yfb62456dqlvnsjrfsfnd73zay\",\"id\":\"31yfb62456dqlvnsjrfsfnd73zay\",\"type\":\"user\",\"uri\":\"spotify:user:31yfb62456dqlvnsjrfsfnd73zay\"},\"primary_color\":null,\"public\":true,\"snapshot_id\":\"AAAAKbLzuZyJhE4brDxjMBoyP4cUJ5Av\",\"tracks\":{\"href\":\"https://api.spotify.com/v1/playlists/34oEnBjW8u9K0EOUfSonQ0/tracks\",\"total\":33},\"type\":\"playlist\",\"uri\":\"spotify:playlist:34oEnBjW8u9K0EOUfSonQ0\"},{\"collaborative\":false,\"description\":\"hey
        everybody :3\",\"external_urls\":{\"spotify\":\"https://open.spotify.com/playlist/54BJNOVUOUCEkku85udmcP\"},\"href\":\"https://api.spotify.com/v1/playlists/54BJNOVUOUCEkku85udmcP\",\"id\":\"54BJNOVUOUCEkku85udmcP\",\"images\":[{\"height\":null,\"url\":\"https://image-cdn-ak.spotifycdn.com/image/ab67706c0000da84925dadeec3d764f32f6f7a63\",\"width\":null}],\"name\":\"Gorillaz
        Playlist\",\"owner\":{\"display_name\":\"Birdie\",\"external_urls\":{\"spotify\":\"https://open.spotify.com/user/gmbelzcihn29tch2412i3yl03\"},\"href\":\"https://api.spotify.com/v1/users/gmbelzcihn29tch2412i3yl03\",\"id\":\"gmbelzcihn29tch2412i3yl03\",\"type\":\"user\",\"uri\":\"spotify:user:gmbelzcihn29tch2412i3yl03\"},\"primary_color\":null,\"public\":true,\"snapshot_id\":\"AAAAVig+fK8ledTsPWE7JgBEcS4D1569\",\"tracks\":{\"href\":\"https://api.spotify.com/v1/playlists/54BJNOVUOUCEkku85udmcP/tracks\",\"total\":72},\"type\":\"playlist\",\"uri\":\"spotify:playlist:54BJNOVUOUCEkku85udmcP\"},{\"collaborative\":false,\"description\":\"\",\"external_urls\":{\"spotify\":\"https://open.spotify.com/playlist/71VYPjN91EvNKP9dfbHnSZ\"},\"href\":\"https://api.spotify.com/v1/playlists/71VYPjN91EvNKP9dfbHnSZ\",\"id\":\"71VYPjN91EvNKP9dfbHnSZ\",\"images\":[{\"height\":640,\"url\":\"https://mosaic.scdn.co/640/ab67616d00001e0219d85a472f328a6ed9b704cfab67616d00001e02661d019f34569f79eae9e985ab67616d00001e029a0d4fc558f2337ee5b3a5c2ab67616d00001e02f6c46838e4425ea96e2562fe\",\"width\":640},{\"height\":300,\"url\":\"https://mosaic.scdn.co/300/ab67616d00001e0219d85a472f328a6ed9b704cfab67616d00001e02661d019f34569f79eae9e985ab67616d00001e029a0d4fc558f2337ee5b3a5c2ab67616d00001e02f6c46838e4425ea96e2562fe\",\"width\":300},{\"height\":60,\"url\":\"https://mosaic.scdn.co/60/ab67616d00001e0219d85a472f328a6ed9b704cfab67616d00001e02661d019f34569f79eae9e985ab67616d00001e029a0d4fc558f2337ee5b3a5c2ab67616d00001e02f6c46838e4425ea96e2562fe\",\"width\":60}],\"name\":\"This
        is actually gorillaz\",\"owner\":{\"display_name\":\"1242821143\",\"external_urls\":{\"spotify\":\"https://open.spotify.com/user/1242821143\"},\"href\":\"https://api.spotify.com/v1/users/1242821143\",\"id\":\"1242821143\",\"type\":\"user\",\"uri\":\"spotify:user:1242821143\"},\"primary_color\":null,\"public\":true,\"snapshot_id\":\"AAAAEQ6KgJ8hme4xmNbBUpD5PK5VBEha\",\"tracks\":{\"href\":\"https://api.spotify.com/v1/playlists/71VYPjN91EvNKP9dfbHnSZ/tracks\",\"total\":12},\"type\":\"playlist\",\"uri\":\"spotify:playlist:71VYPjN91EvNKP9dfbHnSZ\"},null,{\"collaborative\":false,\"description\":\"Music,
        music for the fans - listen forever hands in hands! (This playlist was made
        beacuse the official one is too dissapointing for most fans, so I made this
        - for the fans) It also resembles my favorite songs from top (first) to bottom
        (last)\",\"external_urls\":{\"spotify\":\"https://open.spotify.com/playlist/5WfGoQ6Ee3Wx9vFxOtYiRa\"},\"href\":\"https://api.spotify.com/v1/playlists/5WfGoQ6Ee3Wx9vFxOtYiRa\",\"id\":\"5WfGoQ6Ee3Wx9vFxOtYiRa\",\"images\":[{\"height\":null,\"url\":\"https://image-cdn-ak.spotifycdn.com/image/ab67706c0000da8485c3f2d94d8b2b32ec0851a3\",\"width\":null}],\"name\":\"This
        Is Gorillaz [Extended]\",\"owner\":{\"display_name\":\"11137126587\",\"external_urls\":{\"spotify\":\"https://open.spotify.com/user/11137126587\"},\"href\":\"https://api.spotify.com/v1/users/11137126587\",\"id\":\"11137126587\",\"type\":\"user\",\"uri\":\"spotify:user:11137126587\"},\"primary_color\":null,\"public\":true,\"snapshot_id\":\"AAABTaIm5agPM43CDVOD1jc6r6ibhQYT\",\"tracks\":{\"href\":\"https://api.spotify.com/v1/playlists/5WfGoQ6Ee3Wx9vFxOtYiRa/tracks\",\"total\":97},\"type\":\"playlist\",\"uri\":\"spotify:playlist:5WfGoQ6Ee3Wx9vFxOtYiRa\"},{\"collaborative\":false,\"description\":\"\",\"external_urls\":{\"spotify\":\"https://open.spotify.com/playlist/17UQ1FNbmlqvUv4J74fAKr\"},\"href\":\"https://api.spotify.com/v1/playlists/17UQ1FNbmlqvUv4J74fAKr\",\"id\":\"17UQ1FNbmlqvUv4J74fAKr\",\"images\":[{\"height\":640,\"url\":\"https://mosaic.scdn.co/640/ab67616d00001e0219d85a472f328a6ed9b704cfab67616d00001e02661d019f34569f79eae9e985ab67616d00001e02c73a7bb15f43bae86215934bab67616d00001e02f6c46838e4425ea96e2562fe\",\"width\":640},{\"height\":300,\"url\":\"https://mosaic.scdn.co/300/ab67616d00001e0219d85a472f328a6ed9b704cfab67616d00001e02661d019f34569f79eae9e985ab67616d00001e02c73a7bb15f43bae86215934bab67616d00001e02f6c46838e4425ea96e2562fe\",\"width\":300},{\"height\":60,\"url\":\"https://mosaic.scdn.co/60/ab67616d00001e0219d85a472f328a6ed9b704cfab67616d00001e02661d019f34569f79eae9e985ab67616d00001e02c73a7bb15f43bae86215934bab67616d00001e02f6c46838e4425ea96e2562fe\",\"width\":60}],\"name\":\"Gorillaz
        playlist\",\"owner\":{\"display_name\":\"Pac\",\"external_urls\":{\"spotify\":\"https://open.spotify.com/user/xtrabeef\"},\"href\":\"https://api.spotify.com/v1/users/xtrabeef\",\"id\":\"xtrabeef\",\"type\":\"user\",\"uri\":\"spotify:user:xtrabeef\"},\"primary_color\":null,\"public\":true,\"snapshot_id\":\"AAAAVOHytEkdjaaWQniTh76qoNa5hMB9\",\"tracks\":{\"href\":\"https://api.spotify.com/v1/playlists/17UQ1FNbmlqvUv4J74fAKr/tracks\",\"total\":64},\"type\":\"playlist\",\"uri\":\"spotify:playlist:17UQ1FNbmlqvUv4J74fAKr\"},{\"collaborative\":false,\"description\":\"My
        selection of some songs of this great musicians\",\"external_urls\":{\"spotify\":\"https://open.spotify.com/playlist/5q8QM1gsWV7oUajkvw5ZLR\"},\"href\":\"https://api.spotify.com/v1/playlists/5q8QM1gsWV7oUajkvw5ZLR\",\"id\":\"5q8QM1gsWV7oUajkvw5ZLR\",\"images\":[{\"height\":null,\"url\":\"https://image-cdn-ak.spotifycdn.com/image/ab67706c0000da84823a3ae6f712d502d540ebbb\",\"width\":null}],\"name\":\"This
        is: Daft Punk and Gorillaz\",\"owner\":{\"display_name\":\"oskar.rodriguez28\",\"external_urls\":{\"spotify\":\"https://open.spotify.com/user/oskar.rodriguez28\"},\"href\":\"https://api.spotify.com/v1/users/oskar.rodriguez28\",\"id\":\"oskar.rodriguez28\",\"type\":\"user\",\"uri\":\"spotify:user:oskar.rodriguez28\"},\"primary_color\":null,\"public\":true,\"snapshot_id\":\"AAAAS87TtC/XcoKC88atJ83gYKf53ej1\",\"tracks\":{\"href\":\"https://api.spotify.com/v1/playlists/5q8QM1gsWV7oUajkvw5ZLR/tracks\",\"total\":47},\"type\":\"playlist\",\"uri\":\"spotify:playlist:5q8QM1gsWV7oUajkvw5ZLR\"},null]}}"
    headers:
      Transfer-Encoding:
      - chunked
      Via:
      - HTTP/2 edgeproxy, 1.1 google
      access-control-allow-credentials:
      - 'true'
      access-control-allow-headers:
      - Accept, App-Platform, Authorization, Content-Type, Origin, Retry-After, Spotify-App-Version,
        X-Cloud-Trace-Context, client-token, content-access-token
      access-control-allow-methods:
      - GET, POST, OPTIONS, PUT, DELETE, PATCH
      access-control-allow-origin:
      - '*'
      access-control-max-age:
      - '604800'
      alt-svc:
      - h3=":443"; ma=2592000,h3-29=":443"; ma=2592000
      - h3=":443"; ma=2592000,h3-29=":443"; ma=2592000
      cache-control:
      - public, max-age=0
      content-encoding:
      - gzip
      content-type:
      - application/json; charset=utf-8
      date:
      - Sun, 24 Aug 2025 14:56:05 GMT
      etag:
      - '"MC-ImQ4MzNlM2E1ZjBjYTNmNmZkMWUyN2JhM2RhNzkyMmM0Ig=="'
      server:
      - envoy
      strict-transport-security:
      - max-age=31536000
      x-content-type-options:
      - nosniff
      x-robots-tag:
      - noindex, nofollow
    status:
      code: 200
      message: OK
version: 1
